%!PS-Adobe-3.0 EPSF-3.0
%%Creator: cairo 1.16.0 (https://cairographics.org)
%%CreationDate: Tue Mar  2 00:46:19 2021
%%Pages: 1
%%DocumentData: Clean7Bit
%%LanguageLevel: 2
%%BoundingBox: 0 0 66 24
%%EndComments
%%BeginProlog
50 dict begin
/q { gsave } bind def
/Q { grestore } bind def
/cm { 6 array astore concat } bind def
/w { setlinewidth } bind def
/J { setlinecap } bind def
/j { setlinejoin } bind def
/M { setmiterlimit } bind def
/d { setdash } bind def
/m { moveto } bind def
/l { lineto } bind def
/c { curveto } bind def
/h { closepath } bind def
/re { exch dup neg 3 1 roll 5 3 roll moveto 0 rlineto
      0 exch rlineto 0 rlineto closepath } bind def
/S { stroke } bind def
/f { fill } bind def
/f* { eofill } bind def
/n { newpath } bind def
/W { clip } bind def
/W* { eoclip } bind def
/BT { } bind def
/ET { } bind def
/BDC { mark 3 1 roll /BDC pdfmark } bind def
/EMC { mark /EMC pdfmark } bind def
/cairo_store_point { /cairo_point_y exch def /cairo_point_x exch def } def
/Tj { show currentpoint cairo_store_point } bind def
/TJ {
  {
    dup
    type /stringtype eq
    { show } { -0.001 mul 0 cairo_font_matrix dtransform rmoveto } ifelse
  } forall
  currentpoint cairo_store_point
} bind def
/cairo_selectfont { cairo_font_matrix aload pop pop pop 0 0 6 array astore
    cairo_font exch selectfont cairo_point_x cairo_point_y moveto } bind def
/Tf { pop /cairo_font exch def /cairo_font_matrix where
      { pop cairo_selectfont } if } bind def
/Td { matrix translate cairo_font_matrix matrix concatmatrix dup
      /cairo_font_matrix exch def dup 4 get exch 5 get cairo_store_point
      /cairo_font where { pop cairo_selectfont } if } bind def
/Tm { 2 copy 8 2 roll 6 array astore /cairo_font_matrix exch def
      cairo_store_point /cairo_font where { pop cairo_selectfont } if } bind def
/g { setgray } bind def
/rg { setrgbcolor } bind def
/d1 { setcachedevice } bind def
/cairo_data_source {
  CairoDataIndex CairoData length lt
    { CairoData CairoDataIndex get /CairoDataIndex CairoDataIndex 1 add def }
    { () } ifelse
} def
/cairo_flush_ascii85_file { cairo_ascii85_file status { cairo_ascii85_file flushfile } if } def
/cairo_image { image cairo_flush_ascii85_file } def
/cairo_imagemask { imagemask cairo_flush_ascii85_file } def
%%EndProlog
%%BeginSetup
%%EndSetup
%%Page: 1 1
%%BeginPageSetup
%%PageBoundingBox: 0 0 66 24
%%EndPageSetup
q 0 0 66 24 rectclip
1 0 0 -1 0 24 cm q
1 g
1.727 0.438 m 64.074 0.551 l 64.941 0.551 65.723 0.418 65.723 2.297 c 65.645
 22.965 l 0.152 22.965 l 0.152 2.223 l 0.152 1.297 0.242 0.438 1.727 0.438
 c h
1.727 0.438 m f
19.117 11.703 m 19.117 16.332 15.387 20.082 10.789 20.082 c 6.191 20.082
 2.465 16.332 2.465 11.703 c 2.465 7.074 6.191 3.32 10.789 3.32 c 15.387
 3.32 19.117 7.074 19.117 11.703 c h
19.117 11.703 m f
0 g
17.828 3.121 m 20.441 5.066 22.145 8.18 22.145 11.703 c 22.145 14.906 20.734
 17.773 18.512 19.73 c 65.652 19.73 l 65.652 3.121 l h
17.828 3.121 m f
1 g
27.18 5.746 m 27.473 5.746 27.727 5.789 27.93 5.875 c 28.137 5.961 28.305
 6.074 28.438 6.215 c 28.566 6.359 28.66 6.52 28.719 6.703 c 28.781 6.883
 28.809 7.074 28.809 7.266 c 28.809 7.457 28.781 7.645 28.719 7.828 c 28.66
 8.012 28.566 8.176 28.438 8.316 c 28.305 8.457 28.137 8.57 27.93 8.656 
c 27.727 8.742 27.473 8.789 27.18 8.789 c 26.09 8.789 l 26.09 10.488 l 25.055
 10.488 l 25.055 5.746 l h
26.895 7.977 m 27.012 7.977 27.129 7.969 27.238 7.949 c 27.348 7.934 27.445
 7.898 27.527 7.848 c 27.613 7.797 27.68 7.727 27.73 7.633 c 27.781 7.539
 27.805 7.418 27.805 7.266 c 27.805 7.117 27.781 6.996 27.73 6.902 c 27.68
 6.809 27.613 6.734 27.527 6.688 c 27.445 6.637 27.348 6.602 27.238 6.582
 c 27.129 6.566 27.012 6.555 26.895 6.555 c 26.09 6.555 l 26.09 7.977 l 
h
26.895 7.977 m f
33.188 10.125 m 32.832 10.438 32.34 10.594 31.711 10.594 c 31.07 10.594
 30.578 10.438 30.227 10.129 c 29.879 9.82 29.703 9.34 29.703 8.695 c 29.703
 5.746 l 30.738 5.746 l 30.738 8.695 l 30.738 8.824 30.75 8.949 30.773 9.074
 c 30.793 9.199 30.84 9.309 30.91 9.402 c 30.98 9.496 31.078 9.574 31.207
 9.637 c 31.332 9.695 31.5 9.727 31.711 9.727 c 32.078 9.727 32.336 9.645
 32.477 9.477 c 32.617 9.309 32.688 9.051 32.688 8.695 c 32.688 5.746 l 
33.723 5.746 l 33.723 8.695 l 33.723 9.336 33.547 9.812 33.188 10.125 c 
h
33.188 10.125 m f
37.176 5.746 m 37.402 5.746 37.605 5.766 37.789 5.805 c 37.973 5.848 38.133
 5.91 38.266 6 c 38.398 6.094 38.5 6.215 38.574 6.363 c 38.645 6.516 38.684
 6.699 38.684 6.922 c 38.684 7.16 38.629 7.359 38.52 7.52 c 38.41 7.68 38.254
 7.809 38.043 7.91 c 38.332 7.996 38.547 8.145 38.691 8.352 c 38.832 8.562
 38.906 8.816 38.906 9.113 c 38.906 9.352 38.859 9.559 38.766 9.734 c 38.672
 9.91 38.547 10.051 38.391 10.164 c 38.234 10.273 38.059 10.355 37.859 10.41
 c 37.656 10.461 37.453 10.488 37.242 10.488 c 34.957 10.488 l 34.957 5.746
 l h
37.047 7.664 m 37.23 7.664 37.383 7.621 37.5 7.531 c 37.621 7.441 37.68
 7.301 37.68 7.098 c 37.68 6.988 37.66 6.898 37.621 6.828 c 37.582 6.758
 37.527 6.703 37.461 6.66 c 37.395 6.621 37.32 6.594 37.234 6.578 c 37.148
 6.562 37.059 6.555 36.965 6.555 c 35.996 6.555 l 35.996 7.664 l h
37.105 9.68 m 37.207 9.68 37.305 9.668 37.398 9.648 c 37.488 9.629 37.57
 9.594 37.641 9.551 c 37.711 9.504 37.766 9.438 37.809 9.359 c 37.852 9.281
 37.871 9.18 37.871 9.055 c 37.871 8.812 37.805 8.637 37.668 8.531 c 37.531
 8.43 37.352 8.375 37.129 8.375 c 36 8.375 l 36 9.68 l 37.109 9.68 l h
37.105 9.68 m f
40.98 5.746 m 40.98 9.613 l 43.277 9.613 l 43.277 10.488 l 39.945 10.488
 l 39.945 5.746 l h
40.98 5.746 m f
44.148 5.746 1.039 4.742 re f
49.465 7.012 m 49.402 6.91 49.324 6.824 49.23 6.75 c 49.141 6.672 49.035
 6.613 48.918 6.57 c 48.801 6.531 48.68 6.508 48.551 6.508 c 48.316 6.508
 48.121 6.555 47.957 6.648 c 47.793 6.738 47.66 6.859 47.562 7.012 c 47.461
 7.164 47.391 7.34 47.34 7.531 c 47.297 7.727 47.273 7.93 47.273 8.137 c
 47.273 8.336 47.297 8.531 47.34 8.719 c 47.387 8.906 47.461 9.078 47.562
 9.227 c 47.664 9.379 47.797 9.496 47.957 9.59 c 48.121 9.68 48.316 9.727
 48.551 9.727 c 48.871 9.727 49.117 9.629 49.293 9.434 c 49.473 9.238 49.582
 8.98 49.621 8.664 c 50.625 8.664 l 50.598 8.961 50.531 9.227 50.422 9.465
 c 50.312 9.703 50.164 9.91 49.984 10.078 c 49.809 10.246 49.594 10.375 
49.352 10.461 c 49.109 10.551 48.844 10.598 48.555 10.598 c 48.195 10.598
 47.867 10.531 47.578 10.406 c 47.293 10.281 47.047 10.109 46.852 9.887 
c 46.652 9.664 46.5 9.402 46.395 9.105 c 46.289 8.805 46.238 8.484 46.238
 8.141 c 46.238 7.785 46.289 7.457 46.395 7.152 c 46.5 6.848 46.652 6.582
 46.852 6.359 c 47.047 6.133 47.293 5.957 47.578 5.828 c 47.867 5.699 48.191
 5.633 48.555 5.633 c 48.812 5.633 49.059 5.672 49.289 5.746 c 49.52 5.82
 49.727 5.934 49.91 6.074 c 50.09 6.219 50.242 6.398 50.363 6.609 c 50.48
 6.82 50.555 7.066 50.586 7.34 c 49.582 7.34 l 49.566 7.219 49.523 7.109
 49.465 7.012 c h
49.465 7.012 m f
27.086 12.391 m 27.391 12.391 27.672 12.438 27.934 12.535 c 28.195 12.629
 28.422 12.777 28.613 12.973 c 28.805 13.168 28.957 13.41 29.062 13.703 
c 29.172 13.996 29.227 14.34 29.227 14.73 c 29.227 15.078 29.18 15.398 29.094
 15.688 c 29.004 15.984 28.871 16.234 28.695 16.449 c 28.516 16.66 28.293
 16.828 28.027 16.949 c 27.762 17.07 27.449 17.129 27.086 17.129 c 25.055
 17.129 l 25.055 12.391 l h
27.016 16.254 m 27.164 16.254 27.309 16.23 27.449 16.18 c 27.59 16.133 
27.715 16.051 27.828 15.938 c 27.938 15.824 28.023 15.68 28.09 15.496 c 
28.156 15.316 28.191 15.094 28.191 14.832 c 28.191 14.594 28.168 14.379 
28.121 14.184 c 28.074 13.992 28 13.824 27.891 13.691 c 27.785 13.555 27.648
 13.449 27.473 13.375 c 27.301 13.301 27.086 13.266 26.828 13.266 c 26.09
 13.266 l 26.09 16.254 l h
27.016 16.254 m f
30.227 13.793 m 30.332 13.492 30.484 13.227 30.68 13 c 30.879 12.77 31.121
 12.594 31.41 12.465 c 31.699 12.34 32.02 12.273 32.383 12.273 c 32.746 
12.273 33.074 12.34 33.359 12.465 c 33.645 12.594 33.887 12.77 34.086 13
 c 34.285 13.227 34.438 13.488 34.539 13.793 c 34.648 14.094 34.699 14.426
 34.699 14.781 c 34.699 15.125 34.648 15.449 34.539 15.746 c 34.434 16.043
 34.281 16.305 34.086 16.527 c 33.887 16.746 33.645 16.918 33.359 17.047
 c 33.074 17.172 32.75 17.234 32.383 17.234 c 32.023 17.234 31.699 17.172
 31.41 17.047 c 31.121 16.918 30.879 16.746 30.68 16.527 c 30.48 16.305 
30.328 16.043 30.227 15.746 c 30.121 15.449 30.066 15.125 30.066 14.781 
c 30.066 14.426 30.121 14.098 30.227 13.793 c h
31.172 15.359 m 31.219 15.551 31.293 15.719 31.395 15.871 c 31.492 16.02
 31.625 16.141 31.789 16.23 c 31.953 16.32 32.148 16.367 32.383 16.367 c
 32.617 16.367 32.812 16.32 32.977 16.23 c 33.141 16.141 33.273 16.02 33.371
 15.871 c 33.473 15.719 33.547 15.551 33.594 15.359 c 33.641 15.172 33.664
 14.98 33.664 14.781 c 33.664 14.574 33.641 14.371 33.594 14.176 c 33.547
 13.977 33.473 13.805 33.371 13.652 c 33.27 13.504 33.141 13.379 32.977 
13.289 c 32.812 13.199 32.617 13.152 32.383 13.152 c 32.148 13.152 31.953
 13.199 31.789 13.289 c 31.625 13.379 31.492 13.504 31.395 13.652 c 31.293
 13.805 31.219 13.98 31.172 14.176 c 31.125 14.371 31.102 14.57 31.102 14.781
 c 31.102 14.98 31.125 15.172 31.172 15.359 c h
31.172 15.359 m f
37.195 12.391 m 38.297 15.648 l 38.312 15.648 l 39.355 12.391 l 40.812 
12.391 l 40.812 17.129 l 39.844 17.129 l 39.844 13.77 l 39.828 13.77 l 38.672
 17.129 l 37.875 17.129 l 36.719 13.805 l 36.707 13.805 l 36.707 17.129 
l 35.734 17.129 l 35.734 12.391 l h
37.195 12.391 m f
44.449 12.391 m 46.211 17.129 l 45.137 17.129 l 44.777 16.074 l 43.016 
16.074 l 42.645 17.129 l 41.602 17.129 l 43.387 12.391 l h
44.508 15.297 m 43.914 13.559 l 43.898 13.559 l 43.285 15.297 l h
44.508 15.297 m f
47 12.391 1.035 4.738 re f
50.328 12.391 m 52.297 15.57 l 52.309 15.57 l 52.309 12.391 l 53.277 12.391
 l 53.277 17.129 l 52.242 17.129 l 50.281 13.957 l 50.27 13.957 l 50.27 
17.129 l 49.297 17.129 l 49.297 12.391 l h
50.328 12.391 m f
0 g
64.766 0.074 m 1.234 0.074 l 0.555 0.074 0 0.633 0 1.32 c 0 23.047 l 0 
23.203 0.125 23.324 0.277 23.324 c 65.723 23.324 l 65.875 23.324 66 23.203
 66 23.047 c 66 1.32 l 66 0.633 65.445 0.074 64.766 0.074 c h
1.234 0.637 m 64.766 0.637 l 65.137 0.637 65.441 0.941 65.441 1.32 c 65.441
 1.32 65.441 16.41 65.441 22.738 c 0.559 22.738 l 0.559 16.418 l 0.559 10.09
 0.559 1.32 0.559 1.32 c 0.559 0.945 0.863 0.637 1.234 0.637 c h
1.234 0.637 m f
1 g
19.246 11.82 m 19.246 16.41 15.551 20.129 10.992 20.129 c 6.434 20.129 
2.738 16.41 2.738 11.82 c 2.738 7.234 6.434 3.516 10.992 3.516 c 15.551 
3.516 19.246 7.234 19.246 11.82 c h
19.246 11.82 m f
0 g
11.039 6.637 m 8.145 6.637 7.414 9.387 7.414 11.719 c 7.414 14.055 8.145
 16.805 11.039 16.805 c 13.938 16.805 14.664 14.051 14.664 11.719 c 14.664
 9.387 13.938 6.637 11.039 6.637 c h
11.039 8.551 m 11.156 8.551 11.266 8.57 11.367 8.598 c 11.574 8.777 11.676
 9.027 11.477 9.375 c 9.547 12.945 l 9.488 12.492 9.48 12.047 9.48 11.719
 c 9.48 10.691 9.551 8.551 11.039 8.551 c h
12.484 10.195 m 12.586 10.746 12.602 11.316 12.602 11.719 c 12.602 12.746
 12.531 14.887 11.039 14.887 c 10.922 14.887 10.816 14.875 10.715 14.848
 c 10.695 14.84 10.68 14.836 10.66 14.832 c 10.629 14.82 10.598 14.812 10.566
 14.801 c 10.234 14.66 10.027 14.402 10.328 13.945 c h
12.484 10.195 m f
11.02 2.887 m 8.586 2.887 6.535 3.738 4.863 5.453 c 4.02 6.305 3.371 7.277
 2.922 8.359 c 2.484 9.434 2.266 10.551 2.266 11.719 c 2.266 12.895 2.484
 14.016 2.922 15.078 c 3.359 16.141 3.996 17.094 4.832 17.949 c 5.68 18.789
 6.629 19.438 7.684 19.887 c 8.75 20.332 9.863 20.551 11.02 20.551 c 12.18
 20.551 13.309 20.324 14.395 19.871 c 15.48 19.418 16.449 18.77 17.309 17.918
 c 18.133 17.109 18.758 16.18 19.176 15.129 c 19.602 14.066 19.816 12.93
 19.816 11.719 c 19.816 10.523 19.605 9.387 19.176 8.324 c 18.746 7.254 
18.121 6.305 17.297 5.473 c 15.57 3.746 13.477 2.887 11.02 2.887 c h
11.059 4.477 m 13.043 4.477 14.734 5.184 16.145 6.602 c 16.824 7.285 17.348
 8.07 17.699 8.941 c 18.055 9.816 18.234 10.742 18.234 11.719 c 18.234 13.75
 17.547 15.434 16.176 16.777 c 15.465 17.473 14.668 18.008 13.781 18.375
 c 12.902 18.742 12 18.926 11.059 18.926 c 10.105 18.926 9.195 18.746 8.328
 18.387 c 7.461 18.02 6.684 17.492 5.996 16.809 c 5.305 16.113 4.773 15.332
 4.398 14.457 c 4.031 13.574 3.844 12.664 3.844 11.719 c 3.844 10.762 4.031
 9.844 4.398 8.973 c 4.773 8.086 5.305 7.293 5.996 6.59 c 7.363 5.184 9.051
 4.477 11.059 4.477 c h
11.059 4.477 m f
Q Q
showpage
%%Trailer
end
%%EOF
